Notes on Statistics with R (SwR) – 1 Preparing Data
…
dplyr::glimpse(gss_2016_gssr)

#> Rows: 2,867
#> Columns: 2
#> $ age   <dbl+lbl> 47, 61, 72, 43, 55, 53, 50, 23, 45, 71, 33, 86, 32, 60, 76, …
#> $ grass <dbl+lbl> NA(i),     1,     2, NA(i),     1,     1, NA(i),     2, NA(i…

R Code 1.33 : Print values as tibble() with labelled data

Code

base::print(gss_2016_gssr)

#> # A tibble: 2,867 × 2
#>    age       grass                      
#>    <dbl+lbl> <dbl+lbl>                  
#>  1 47        NA(i) [iap]                
#>  2 61            1 [should be legal]    
#>  3 72            2 [should not be legal]
#>  4 43        NA(i) [iap]                
#>  5 55            1 [should be legal]    
#>  6 53            1 [should be legal]    
#>  7 50        NA(i) [iap]                
#>  8 23            2 [should not be legal]
#>  9 45        NA(i) [iap]                
#> 10 71            2 [should not be legal]
#> # ℹ 2,857 more rows
…
base::saveRDS(chap01_gtsummary_basic, "data-clean/chap01_gtsummary_clean.rds")

base::summary(chap01_gtsummary_basic)

#>  grass          sex          age_cat    
#>  Yes:1991   Male  :1792   18 - 29:1154  
#>  No :1699   Female:1898   30 - 39: 859  
#>                           40 - 49: 855  
#>                           50 - 59: 822

Code

chap01_gtsummary_basic

#> # A tibble: 3,690 × 3
#>    grass sex    age_cat
#>    <fct> <fct>  <fct>  
#>  1 Yes   Male   50 - 59
#>  2 Yes   Male   50 - 59
#>  3 Yes   Female 50 - 59
#>  4 No    Female 18 - 29
#>  5 No    Female 30 - 39
#>  6 Yes   Male   30 - 39
#>  7 No    Male   18 - 29
#>  8 Yes   Female 30 - 39
#>  9 No    Male   50 - 59
#> 10 Yes   Male   18 - 29
#> # ℹ 3,680 more rows
…
